Deity,Enigma,Entity,Zealot,Megami,Fury,Lady,Kishin,Genma,Herald,Dragon,Avian,Avatar,Holy,Tree,Yoma,Fairy,Night,Divine,Fallen,Snake,Flight,Beast,UMA,Jirae,Brute,Femme
Nothing,Nothing,Nothing,Nothing,Nothing,Nothing,Nothing,Nothing,Nothing,Genma,Nothing,Herald,Nothing,Avatar,Kishin,Nothing,Night,Yoma,Nothing,Nothing,Dragon,Fallen,Avatar,Avatar,Kishin,Kishin,Nothing
Nothing,Nothing,Nothing,Nothing,Nothing,Nothing,Nothing,Nothing,Nothing,Genma,Nothing,Herald,Nothing,Avatar,Kishin,Nothing,Night,Yoma,Nothing,Nothing,Dragon,Fallen,Avatar,Avatar,Kishin,Kishin,Nothing
Nothing,Nothing,Nothing,Nothing,Nothing,Nothing,Nothing,Nothing,Nothing,Genma,Nothing,Herald,Nothing,Avatar,Kishin,Nothing,Night,Yoma,Nothing,Nothing,Dragon,Fallen,Avatar,Avatar,Kishin,Kishin,Nothing
Nothing,Nothing,Nothing,Nothing,Nothing,Nothing,Nothing,Nothing,Nothing,Genma,Nothing,Herald,Nothing,Avatar,Kishin,Nothing,Night,Yoma,Nothing,Nothing,Dragon,Fallen,Avatar,Avatar,Kishin,Kishin,Nothing
Nothing,Nothing,Nothing,Nothing,Nothing,Nothing,Nothing,Nothing,Herald,Genma,Nothing,Nothing,Nothing,Nothing,Fairy,Genma,Yoma,Fairy,Herald,Nothing,Dragon,Fallen,Avatar,Avatar,Nothing,Nothing,Dragon
Nothing,Nothing,Nothing,Nothing,Nothing,Nothing,Nothing,Tyrant,Dragon,Vile,Vile,Nothing,Nothing,Nothing,Dragon,Avatar,Brute,Femme,Genma,Vile,Dragon,Nothing,Dragon,Dragon,Dragon,Kishin,Drake
Nothing,Nothing,Nothing,Nothing,Nothing,Nothing,Nothing,Nothing,Yoma,Nothing,Nothing,Genma,Nothing,Nothing,Femme,Nothing,Femme,Nothing,Herald,Tyrant,Dragon,Nothing,Snake,Snake,Femme,Kishin,Drake
Nothing,Nothing,Nothing,Nothing,Nothing,Nothing,Nothing,Element Undine,Nothing,Genma,Nothing,Fallen,Dragon,Avatar,Dragon,Genma,Yoma,Femme,Genma,Night,Jirae,Raptor,Snake,Snake,Snake,Snake,Nothing
Nothing,Nothing,Nothing,Nothing,Nothing,Nothing,Nothing,Nothing,Element Sylph,Nothing,Nothing,Herald,Herald,Kishin,Fairy,Fairy,Divine,Fairy,Avian,Flight,Night,Avian,Holy,Holy,Tree,Kishin,Nothing
Nothing,Nothing,Nothing,Nothing,Nothing,Nothing,Nothing,Nothing,Nothing,Element Salamander,Nothing,Nothing,Nothing,Avatar,Genma,Tyrant,Divine,Yoma,Avian,Divine,Dragon,Avian,Avatar,Avatar,Nothing,Kishin,Nothing
Nothing,Nothing,Nothing,Nothing,Nothing,Nothing,Nothing,Nothing,Nothing,Nothing,Element Undine,Nothing,Nothing,Kishin,Jirae,Nothing,Avatar,Snake,Drake,Drake,Kishin,Genma,Holy,Holy,Vile,Kishin,Kishin
Nothing,Nothing,Nothing,Nothing,Nothing,Nothing,Nothing,Nothing,Nothing,Nothing,Nothing,Element Sylph,Genma,Avatar,Beast,Snake,Divine,Fallen,Nothing,Yoma,Dragon,Divine,Holy,Holy,Yoma,Night,Nothing
Nothing,Nothing,Nothing,Nothing,Nothing,Nothing,Nothing,Nothing,Nothing,Nothing,Nothing,Nothing,Element Salamander,Genma,Drake,Nothing,Snake,Beast,Dragon,Holy,Kishin,Avian,Holy,Holy,Tree,Snake,Night
Nothing,Nothing,Nothing,Nothing,Nothing,Nothing,Nothing,Nothing,Nothing,Nothing,Nothing,Nothing,Nothing,Element Gnome,Beast,Drake,Beast,Wilder,Avatar,Beast,Dragon,Avian,Yoma,Yoma,Tree,Beast,Nothing
Nothing,Nothing,Nothing,Nothing,Nothing,Nothing,Nothing,Nothing,Nothing,Nothing,Nothing,Nothing,Nothing,Nothing,Element Gnome,Fairy,Yoma,Wood,Genma,Jirae,Jirae,Wilder,Wilder,Wilder,Brute,Snake,Brute
Nothing,Nothing,Nothing,Nothing,Nothing,Nothing,Nothing,Nothing,Nothing,Nothing,Nothing,Nothing,Nothing,Nothing,Nothing,Element Sylph,Night,Genma,Fallen,Night,Avian,Fallen,Brute,Brute,Fairy,Femme,Snake
Nothing,Nothing,Nothing,Nothing,Nothing,Nothing,Nothing,Nothing,Nothing,Nothing,Nothing,Nothing,Nothing,Nothing,Nothing,Nothing,Element Undine,Yoma,Flight,Divine,Tree,Fallen,Holy,Holy,Night,Fallen,Flight
Nothing,Nothing,Nothing,Nothing,Nothing,Nothing,Nothing,Nothing,Nothing,Nothing,Nothing,Nothing,Nothing,Nothing,Nothing,Nothing,Nothing,Element Gnome,Flight,Femme,Drake,Yoma,Flight,Flight,Beast,Jaki,Drake
Nothing,Nothing,Nothing,Nothing,Nothing,Nothing,Nothing,Nothing,Nothing,Nothing,Nothing,Nothing,Nothing,Nothing,Nothing,Nothing,Nothing,Nothing,Element Sylph,Flight,Holy,Fairy,Fallen,Fallen,Brute,Yoma,Avian
Nothing,Nothing,Nothing,Nothing,Nothing,Nothing,Nothing,Nothing,Nothing,Nothing,Nothing,Nothing,Nothing,Nothing,Nothing,Nothing,Nothing,Nothing,Nothing,Element Gnome,Femme,Night,Brute,Brute,Jaki,Jirae,Flight
Nothing,Nothing,Nothing,Nothing,Nothing,Nothing,Nothing,Nothing,Nothing,Nothing,Nothing,Nothing,Nothing,Nothing,Nothing,Nothing,Nothing,Nothing,Nothing,Nothing,Element Undine,Femme,Holy,Holy,Kishin,Fallen,Brute
Nothing,Nothing,Nothing,Nothing,Nothing,Nothing,Nothing,Nothing,Nothing,Nothing,Nothing,Nothing,Nothing,Nothing,Nothing,Nothing,Nothing,Nothing,Nothing,Nothing,Nothing,Element Sylph,Brute,Brute,Fairy,Femme,Avian
Nothing,Nothing,Nothing,Nothing,Nothing,Nothing,Nothing,Nothing,Nothing,Nothing,Nothing,Nothing,Nothing,Nothing,Nothing,Nothing,Nothing,Nothing,Nothing,Nothing,Nothing,Nothing,Element Sylph,Nothing,Brute,Wilder,Night
Nothing,Nothing,Nothing,Nothing,Nothing,Nothing,Nothing,Nothing,Nothing,Nothing,Nothing,Nothing,Nothing,Nothing,Nothing,Nothing,Nothing,Nothing,Nothing,Nothing,Nothing,Nothing,Nothing,Nothing,Brute,Wilder,Night
Nothing,Nothing,Nothing,Nothing,Nothing,Nothing,Nothing,Nothing,Nothing,Nothing,Nothing,Nothing,Nothing,Nothing,Nothing,Nothing,Nothing,Nothing,Nothing,Nothing,Nothing,Nothing,Nothing,Nothing,Element Gnome,Femme,Brute
Nothing,Nothing,Nothing,Nothing,Nothing,Nothing,Nothing,Nothing,Nothing,Nothing,Nothing,Nothing,Nothing,Nothing,Nothing,Nothing,Nothing,Nothing,Nothing,Nothing,Nothing,Nothing,Nothing,Nothing,Nothing,Element Gnome,Jirae
Nothing,Nothing,Nothing,Nothing,Nothing,Nothing,Nothing,Nothing,Nothing,Nothing,Nothing,Nothing,Nothing,Nothing,Nothing,Nothing,Nothing,Nothing,Nothing,Nothing,Nothing,Nothing,Nothing,Nothing,Nothing,Nothing,Element Undine
